{
  "name": "egovinfrastructure/nginx",
  "version": "0.1.0",
  "author": "Andrii Ageiev",
  "summary": "Install and configure nginx on CentOS 6.7",
  "license": "Apache-2.0",
  "source": "https://bitbucket.org/egovinfrastructure/nginx",
  "project_page": "https://bitbucket.org/egovinfrastructure/nginx/wiki/Home",
  "issues_url": "https://bitbucket.org/egovinfrastructure/nginx/issues",
  "dependencies": [
    {"name":"puppetlabs-stdlib","version_requirement":">= 1.0.0"}
  ]
}

